#
# this is a help file... don't run it!
#
########################
#
# how to set up your raspberry pi for static IP address
#
https://www.modmypi.com/blog/tutorial-how-to-give-your-raspberry-pi-a-static-ip-address
#
########################
#
# where to get a relay board for your pan & tilt unit
#
http://www.pridopia.co.uk/pi-2803-4relay.html
#
########################
#
# how to install the python RPi.GPIO module from the command line
#
$sudo apt-get update
$sudo apt-get install python-dev
$sudo apt-get install python-rpi.gpio
#
########################
#
# how to make your life 100x easier by using an interactive python shell
#
$sudo apt-get install ipython
#
# then run ipython as a SU from the command line
#
########################
#
# RPi GPIO connector
#
#    3V3 |  1 |  2 | 5V
#  GPIO2 |  3 |  4 | 5V
#  GPIO3 |  5 |  6 | GND
#  GPIO4 |  7 |  8 | GPIO14
#    GND |  9 | 10 | GPIO15
# GPIO17 | 11 | 12 | GPIO18
# GPIO27 | 13 | 14 | GND
# GPIO22 | 15 | 16 | GPIO23
#    3V3 | 17 | 18 | GPIO24
# GPIO10 | 19 | 20 | GND
#  GPIO9 | 21 | 22 | GPIO25
# GPIO11 | 23 | 24 | GPIO8
#    GND | 25 | 26 | GPIO7
# 
#######################
